<svg xmlns="http://www.w3.org/2000/svg" width="22" height="17" viewBox="0 0 22 17">
    <path fill="#000" fill-rule="evenodd" d="M0 6.448v9.507c0 .42.352.76.786.76H7.07c.434 0 .786-.34.786-.76v-1.862c0-1.678 1.407-3.039 3.143-3.039 1.736 0 3.143 1.36 3.143 3.04v1.86c0 .42.352.76.786.76h6.285c.434 0 .786-.34.786-.76V6.463c0-.746-.223-1.478-.738-2.032A14.017 14.017 0 0 0 11 0 13.74 13.74 0 0 0 .723 4.435C.218 4.987 0 5.71 0 6.448z"/>
</svg>
